[
    {
        "id": "116a1863",
        "onlineScanId": "25939754-ffd2-43e9-a17c-6364c4b95454",
        "startTime": 1640252629236,
        "endTime": 1640252664919,
        "duration": "35683 ms",
        "project": "darknet_dsr_1223d",
        "status": {
            "status": "SUCCESS",
            "activityLog": [
                {
                    "startedAt": 1640252629238,
                    "stepName": "SCM_CODE_DIFF",
                    "type": "COMMAND",
                    "resourceMonitor": "",
                    "status": "SUCCESS",
                    "endedAt": 1640252634204,
                    "elapsed": "4966 ms",
                    "others": {
                        "executeCommand": "cd /home/user/xcalclient_dev_1222b/executable && ./scm/scmSubPhase -op /home/user/scan_code/dsr/darknet_dsr_1223d/.xcalscan/116a1863 -api http://mwdev.xcalibyte.co:80 -pid f24717c9-5fb7-4f66-a81e-683dc7789f18 -token 'Bearer eyJhbGciOiJIUzUxMiJ9.eyJzdWIiOiI0N2NjNGNjMS01M2Q4LTRkOTEtODNiYy0wNjI2OWQyZTliZjAiLCJpYXQiOjE2NDAyNTI2MzAsImV4cCI6MTY0MDMzOTAzMH0.ZArEc62jNvM-gw7xTXCc7xKn7PuJaZn52XRiLWbA6tvZylXzIl3uMMiDvaUE9I8Q5M_fmkisWT4zXEqBSa0Kfg' -bt 10 -rp /home/user/scan_code/dsr/darknet_dsr_1223d -rb master",
                        "flowLogs": [
                            "2021-12-23 09:43:51, PREPROC_SCM_COMMIT, init",
                            "2021-12-23 09:43:51, PREPROC_SCM_COMMIT, Memory: total=38.60G used=6.00G free=30.19G, Disk: total=364.76G used=108.74G free=237.47G",
                            "2021-12-23 09:43:54, PREPROC_SCM_COMMIT, 0 (--work-dir /home/user/scan_code/dsr/darknet_dsr_1223d/.xcalscan/116a1863 --api-host http://mwdev.xcalibyte.co:80 --project-id f24717c9-5fb7-4f66-a81e-683dc7789f18 --token Bearer eyJhbGciOiJIUzUxMiJ9.eyJzdWIiOiI0N2NjNGNjMS01M2Q4LTRkOTEtODNiYy0wNjI2OWQyZTliZjAiLCJpYXQiOjE2NDAyNTI2MzAsImV4cCI6MTY0MDMzOTAzMH0.ZArEc62jNvM-gw7xTXCc7xKn7PuJaZn52XRiLWbA6tvZylXzIl3uMMiDvaUE9I8Q5M_fmkisWT4zXEqBSa0Kfg --repo-path /home/user/scan_code/dsr/darknet_dsr_1223d --repo-branch master --backtrack-times 10 --delta-result False)",
                            "2021-12-23 09:43:54, PREPROC_SCM_COMMIT, fini,Elapse Time(0.001 mSec)",
                            "2021-12-23 09:43:54, PREPROC_SCM_DODIFF, init",
                            "2021-12-23 09:43:54, PREPROC_SCM_DODIFF, Memory: total=38.60G used=6.01G free=30.18G, Disk: total=364.76G used=108.74G free=237.47G",
                            "2021-12-23 09:43:54, PREPROC_SCM_DODIFF, 0 (--work-dir /home/user/scan_code/dsr/darknet_dsr_1223d/.xcalscan/116a1863 --commit-id 7d13ca60caff351aa6fffcde21a7ab3ccb7356d7 --baseline-commit-id  --repo-path /home/user/scan_code/dsr/darknet_dsr_1223d --repo-branch master)",
                            "2021-12-23 09:43:54, PREPROC_SCM_DODIFF, fini,Elapse Time(0.328 mSec)"
                        ],
                        "summary": {
                            "commitId": "7d13ca60caff351aa6fffcde21a7ab3ccb7356d7",
                            "baselineCommitId": ""
                        }
                    }
                },
                {
                    "startedAt": 1640252634205,
                    "stepName": "PREBUILD",
                    "type": "COMMAND",
                    "resourceMonitor": "",
                    "status": "SUCCESS",
                    "endedAt": 1640252650761,
                    "elapsed": "16556 ms",
                    "others": {
                        "executeCommand": "cd /home/user/xcalclient_dev_1222b/executable && ./buildTask -pc /home/user/scan_code/dsr/darknet_dsr_1223d/xcalscan.conf -xp /home/user/xcalclient_dev_1222b/executable/xcalbuild/linux/bin/xcalbuild -op /home/user/scan_code/dsr/darknet_dsr_1223d/.xcalscan/116a1863",
                        "flowLogs": [
                            "2021-12-23 09:43:56, BUILD, init",
                            "2021-12-23 09:43:56, BUILD, Memory: total=38.60G used=6.02G free=30.15G, Disk: total=364.76G used=108.74G free=237.47G",
                            "2021-12-23 09:44:10, BUILD,  ( --project-conf /home/user/scan_code/dsr/darknet_dsr_1223d/xcalscan.conf --xcalbuild-path /home/user/xcalclient_dev_1222b/executable/xcalbuild/linux/bin/xcalbuild --output-path /home/user/scan_code/dsr/darknet_dsr_1223d/.xcalscan/116a1863 --fwl None --fbl None)",
                            "2021-12-23 09:44:10, BUILD, fini,Elapse Time(13941.957 mSec)"
                        ],
                        "summary": {}
                    }
                },
                {
                    "startedAt": 1640252650762,
                    "stepName": "PACKAGING",
                    "type": "COMMAND",
                    "resourceMonitor": "",
                    "status": "SUCCESS",
                    "endedAt": 1640252653720,
                    "elapsed": "2958 ms",
                    "others": {
                        "executeCommand": "cd /home/user/xcalclient_dev_1222b/executable && ./packager -pc /home/user/scan_code/dsr/darknet_dsr_1223d/xcalscan.conf -op /home/user/scan_code/dsr/darknet_dsr_1223d/.xcalscan/116a1863",
                        "flowLogs": [
                            "2021-12-23 09:44:13, PREP_SRC, init",
                            "2021-12-23 09:44:13, PREP_SRC, Memory: total=38.60G used=6.01G free=30.11G, Disk: total=364.76G used=108.75G free=237.46G",
                            "2021-12-23 09:44:13, PREP_SRC,  ( --project-conf /home/user/scan_code/dsr/darknet_dsr_1223d/xcalscan.conf --output-path /home/user/scan_code/dsr/darknet_dsr_1223d/.xcalscan/116a1863)",
                            "2021-12-23 09:44:13, PREP_SRC, fini,Elapse Time(538.866 mSec)"
                        ],
                        "summary": {
                            "fileCounts": 1045,
                            "lineOfCode": 149044,
                            "dirCounts": 12
                        }
                    }
                },
                {
                    "startedAt": 1640252653721,
                    "stepName": "UPLOAD",
                    "type": "COMMAND",
                    "resourceMonitor": "",
                    "status": "SUCCESS",
                    "endedAt": 1640252657751,
                    "elapsed": "4030 ms",
                    "others": {
                        "executeCommand": "cd /home/user/xcalclient_dev_1222b/executable && ./uploadfile -pc /home/user/scan_code/dsr/darknet_dsr_1223d/xcalscan.conf -url http://mwdev.xcalibyte.co:9000 -fd /home/user/scan_code/dsr/darknet_dsr_1223d/.xcalscan/116a1863",
                        "flowLogs": [
                            "2021-12-23 09:44:16, UP_FILE, init",
                            "2021-12-23 09:44:16, UP_FILE, Memory: total=38.60G used=6.01G free=30.09G, Disk: total=364.76G used=108.75G free=237.46G",
                            "2021-12-23 09:44:17, UP_FILE,  ( --project-conf /home/user/scan_code/dsr/darknet_dsr_1223d/xcalscan.conf --file-dir /home/user/scan_code/dsr/darknet_dsr_1223d/.xcalscan/116a1863 --url http://mwdev.xcalibyte.co:9000)",
                            "2021-12-23 09:44:17, UP_FILE, fini,Elapse Time(1574.557 mSec)"
                        ],
                        "summary": {
                            "fileList": {
                                "compile_commands.json": {
                                    "path": "/home/user/scan_code/dsr/darknet_dsr_1223d/.xcalscan/116a1863/compile_commands.json",
                                    "size": 22042,
                                    "prettySize": "22 kB"
                                },
                                "fileinfo.json": {
                                    "path": "/home/user/scan_code/dsr/darknet_dsr_1223d/.xcalscan/116a1863/fileinfo.json",
                                    "size": 375052,
                                    "prettySize": "375 kB"
                                },
                                "preprocess.tar.gz": {
                                    "path": "/home/user/scan_code/dsr/darknet_dsr_1223d/.xcalscan/116a1863/preprocess.tar.gz",
                                    "size": 2291935,
                                    "prettySize": "2.29 MB"
                                },
                                "source_code.zip": {
                                    "path": "/home/user/scan_code/dsr/darknet_dsr_1223d/.xcalscan/116a1863/source_code.zip",
                                    "size": 0,
                                    "prettySize": "0 B"
                                }
                            }
                        }
                    }
                },
                {
                    "startedAt": 1640252657752,
                    "stepName": "CREATE_SCAN_TASK",
                    "type": "HTTP",
                    "resourceMonitor": "",
                    "status": "SUCCESS",
                    "endedAt": 1640252659879,
                    "elapsed": "2127 ms",
                    "others": {
                        "summary": {}
                    }
                },
                {
                    "startedAt": 1640252659880,
                    "stepName": "SUBMIT_SCAN_TASK",
                    "type": "HTTP",
                    "resourceMonitor": "",
                    "status": "SUCCESS",
                    "endedAt": 1640252662903,
                    "elapsed": "3023 ms",
                    "others": {
                        "summary": {}
                    }
                },
                {
                    "startedAt": 1640252662904,
                    "stepName": "CLEAN_UP",
                    "type": "UTILS",
                    "resourceMonitor": "",
                    "status": "SUCCESS",
                    "endedAt": 1640252664918,
                    "elapsed": "2014 ms",
                    "others": {
                        "summary": {
                            "cleanedFiles": [
                                "/home/user/scan_code/dsr/darknet_dsr_1223d/.xcalscan/116a1863/rules.json",
                                "/home/user/scan_code/dsr/darknet_dsr_1223d/.xcalscan/116a1863/path-msg.json",
                                "/home/user/scan_code/dsr/darknet_dsr_1223d/.xcalscan/116a1863/mi.tar.gz",
                                "/home/user/scan_code/dsr/darknet_dsr_1223d/.xcalscan/116a1863/uploadlist.json",
                                "/home/user/scan_code/dsr/darknet_dsr_1223d/.xcalscan/116a1863/fileinfo.json",
                                "/home/user/scan_code/dsr/darknet_dsr_1223d/.xcalscan/116a1863/preprocess.tar.gz",
                                "/home/user/scan_code/dsr/darknet_dsr_1223d/.xcalscan/116a1863/compile_commands.json",
                                "/home/user/scan_code/dsr/darknet_dsr_1223d/.xcalscan/116a1863/source_code.zip",
                                "/home/user/scan_code/dsr/darknet_dsr_1223d/.xcalscan/116a1863/source_files.json"
                            ]
                        }
                    }
                }
            ]
        },
        "projectConfig": {
            "projectId": "darknetdsr1223d064f2ec4",
            "projectName": "darknet_dsr_1223d",
            "projectPath": "/home/user/scan_code/dsr/darknet_dsr_1223d",
            "buildPath": "/home/user/scan_code/dsr/darknet_dsr_1223d",
            "uploadSource": false,
            "scanConfig": {
                "lang": "c++",
                "scanMode": "-xsca"
            },
            "dsr": {
                "repoPath": "/home/user/scan_code/dsr/darknet_dsr_1223d",
                "repoBranch": "master",
                "needDsr": false
            },
            "houseKeeping": {
                "maxTaskFolders": 10
            },
            "projectUUID": "f24717c9-5fb7-4f66-a81e-683dc7789f18"
        }
    }
]